{
  "project_info": {
    "project_number": "290669854400",
    "project_id": "groupies-81729",
    "storage_bucket": "groupies-81729.appspot.com"
  },
  "client": [
    {
      "client_info": {
        "mobilesdk_app_id": "1:290669854400:android:d7dae79db4fe11f7347725",
        "android_client_info": {
          "package_name": "com.example.groupiesapp"
        }
      },
      "oauth_client": [
        {
          "client_id": "290669854400-7lh1v41j5b22e6rnpcqrgbf1m8tdjg01.apps.googleusercontent.com",
          "client_type": 3
        }
      ],
      "api_key": [
        {
          "current_key": "AIzaSyDviignQcr1ckI26S_aQhDhQGQiDORNWN8"
        }
      ],
      "services": {
        "appinvite_service": {
          "other_platform_oauth_client": [
            {
              "client_id": "290669854400-7lh1v41j5b22e6rnpcqrgbf1m8tdjg01.apps.googleusercontent.com",
              "client_type": 3
            }
          ]
        }
      }
    }
  ],
  "configuration_version": "1"
}